<svg xmlns="http://www.w3.org/2000/svg" xmlns:xlink="http://www.w3.org/1999/xlink" width="360" height="640" viewBox="0 0 360 640">
  <defs>
    <clipPath id="clip-Création_salle">
      <rect width="360" height="640"/>
    </clipPath>
  </defs>
  <g id="Création_salle" data-name="Création salle" clip-path="url(#clip-Création_salle)">
    <rect width="360" height="640" fill="#fff"/>
    <g id="Groupe_21" data-name="Groupe 21">
      <text id="Création_d_une_salle" data-name="Création d&apos;une salle" transform="translate(64 62)" fill="#707070" font-size="26" font-family="SegoeUI-Semibold, Segoe UI" font-weight="600"><tspan x="0" y="0">Création d&apos;une salle</tspan></text>
      <g id="Pickers_Combo_Box_Default_Collapsed_Rest" data-name="Pickers / Combo Box / Default / Collapsed / Rest" transform="translate(32 97)">
        <g id="_Elements_Picker_Frame_Base_" data-name="_Elements / Picker Frame (Base)">
          <rect id="Picker_Base_Fill_" data-name="Picker Base (Fill)" width="292" height="28" transform="translate(2 26)" fill="rgba(255,255,255,0.4)"/>
          <g id="Picker_Border_Stroke_" data-name="Picker Border (Stroke)" transform="translate(2 26)" fill="none" stroke="rgba(0,0,0,0.4)" stroke-miterlimit="10" stroke-width="2">
            <rect width="292" height="28" stroke="none"/>
            <rect x="-1" y="-1" width="294" height="30" fill="none"/>
          </g>
        </g>
        <g id="ChevronDown_12px_12px_footprint" data-name="ChevronDown / 12px / 12px footprint" transform="translate(264 24)">
          <rect id="Footprint" width="32" height="32" fill="rgba(0,0,0,0)"/>
          <g id="_12px_12px_footprint" data-name="12px / 12px footprint">
            <rect id="Footprint-2" data-name="Footprint" width="12" height="12" transform="translate(10 10)" fill="rgba(0,0,0,0)"/>
            <text id="Icon" transform="translate(10 22)" fill="rgba(0,0,0,0.8)" font-size="12" font-family="SegoeMDL2Assets, Segoe MDL2 Assets"><tspan x="0" y="0"></tspan></text>
          </g>
        </g>
        <text id="Selected_list_item" data-name="Selected list item" transform="translate(12 45)" font-size="14" font-family="SegoeUI, Segoe UI"><tspan x="0" y="0">Selected list item</tspan></text>
        <text id="Control_header" data-name="Control header" transform="translate(0 15)" font-size="14" font-family="SegoeUI, Segoe UI"><tspan x="0" y="0">Nom de bâtiment </tspan></text>
      </g>
      <g id="Pickers_Combo_Box_Default_Collapsed_Rest-2" data-name="Pickers / Combo Box / Default / Collapsed / Rest" transform="translate(32 173)">
        <g id="_Elements_Picker_Frame_Base_2" data-name="_Elements / Picker Frame (Base)">
          <rect id="Picker_Base_Fill_2" data-name="Picker Base (Fill)" width="292" height="28" transform="translate(2 26)" fill="rgba(255,255,255,0.4)"/>
          <g id="Picker_Border_Stroke_2" data-name="Picker Border (Stroke)" transform="translate(2 26)" fill="none" stroke="rgba(0,0,0,0.4)" stroke-miterlimit="10" stroke-width="2">
            <rect width="292" height="28" stroke="none"/>
            <rect x="-1" y="-1" width="294" height="30" fill="none"/>
          </g>
        </g>
        <g id="ChevronDown_12px_12px_footprint-2" data-name="ChevronDown / 12px / 12px footprint" transform="translate(264 24)">
          <rect id="Footprint-3" data-name="Footprint" width="32" height="32" fill="rgba(0,0,0,0)"/>
          <g id="_12px_12px_footprint-2" data-name="12px / 12px footprint">
            <rect id="Footprint-4" data-name="Footprint" width="12" height="12" transform="translate(10 10)" fill="rgba(0,0,0,0)"/>
            <text id="Icon-2" data-name="Icon" transform="translate(10 22)" fill="rgba(0,0,0,0.8)" font-size="12" font-family="SegoeMDL2Assets, Segoe MDL2 Assets"><tspan x="0" y="0"></tspan></text>
          </g>
        </g>
        <text id="Selected_list_item-2" data-name="Selected list item" transform="translate(12 45)" font-size="14" font-family="SegoeUI, Segoe UI"><tspan x="0" y="0">Selected list item</tspan></text>
        <text id="Control_header-2" data-name="Control header" transform="translate(0 15)" font-size="14" font-family="SegoeUI, Segoe UI"><tspan x="0" y="0">Type de salle</tspan></text>
      </g>
      <g id="Text_Text_Box_Default_Rest" data-name="Text / Text Box / Default / Rest" transform="translate(32 249)">
        <g id="_Elements_Input_Box_Base_" data-name="_Elements / Input Box (Base)" transform="translate(0 24)">
          <g id="TextBox_Frame" data-name="TextBox Frame" fill="rgba(255,255,255,0.4)">
            <path d="M0,0H296V32H0Z" stroke="none"/>
            <path d="M 2 2 L 2 30 L 294 30 L 294 2 L 2 2 M 0 0 L 296 0 L 296 32 L 0 32 L 0 0 Z" stroke="none" fill="rgba(0,0,0,0.4)"/>
          </g>
        </g>
        <text id="Hint_text" data-name="Hint text" transform="translate(12 45)" fill="rgba(0,0,0,0.6)" font-size="14" font-family="SegoeUI, Segoe UI"><tspan x="0" y="0">Ace Chemicals</tspan></text>
        <text id="Control_header-3" data-name="Control header" transform="translate(0 15)" font-size="14" font-family="SegoeUI, Segoe UI"><tspan x="0" y="0">Nom de salle</tspan></text>
      </g>
      <g id="Text_Text_Box_Default_Rest-2" data-name="Text / Text Box / Default / Rest" transform="translate(32 325)">
        <g id="_Elements_Input_Box_Base_2" data-name="_Elements / Input Box (Base)" transform="translate(0 24)">
          <g id="TextBox_Frame-2" data-name="TextBox Frame" fill="rgba(255,255,255,0.4)">
            <path d="M0,0H296V32H0Z" stroke="none"/>
            <path d="M 2 2 L 2 30 L 294 30 L 294 2 L 2 2 M 0 0 L 296 0 L 296 32 L 0 32 L 0 0 Z" stroke="none" fill="rgba(0,0,0,0.4)"/>
          </g>
        </g>
        <text id="Hint_text-2" data-name="Hint text" transform="translate(12 45)" fill="rgba(0,0,0,0.6)" font-size="14" font-family="SegoeUI, Segoe UI"><tspan x="0" y="0">1</tspan></text>
        <text id="Control_header-4" data-name="Control header" transform="translate(0 15)" font-size="14" font-family="SegoeUI, Segoe UI"><tspan x="0" y="0">Numéro de salle</tspan></text>
      </g>
      <g id="Text_Text_Box_Default_Rest-3" data-name="Text / Text Box / Default / Rest" transform="translate(32 401)">
        <g id="_Elements_Input_Box_Base_3" data-name="_Elements / Input Box (Base)" transform="translate(0 24)">
          <g id="TextBox_Frame-3" data-name="TextBox Frame" fill="rgba(255,255,255,0.4)">
            <path d="M0,0H296V32H0Z" stroke="none"/>
            <path d="M 2 2 L 2 30 L 294 30 L 294 2 L 2 2 M 0 0 L 296 0 L 296 32 L 0 32 L 0 0 Z" stroke="none" fill="rgba(0,0,0,0.4)"/>
          </g>
        </g>
        <text id="Hint_text-3" data-name="Hint text" transform="translate(12 45)" fill="rgba(0,0,0,0.6)" font-size="14" font-family="SegoeUI, Segoe UI"><tspan x="0" y="0">100</tspan></text>
        <text id="Control_header-5" data-name="Control header" transform="translate(0 15)" font-size="14" font-family="SegoeUI, Segoe UI"><tspan x="0" y="0">Surface (en m²)</tspan></text>
      </g>
      <g id="Text_Text_Box_Default_Rest-4" data-name="Text / Text Box / Default / Rest" transform="translate(33 477)">
        <g id="_Elements_Input_Box_Base_4" data-name="_Elements / Input Box (Base)" transform="translate(0 24)">
          <g id="TextBox_Frame-4" data-name="TextBox Frame" fill="rgba(255,255,255,0.4)">
            <path d="M0,0H296V32H0Z" stroke="none"/>
            <path d="M 2 2 L 2 30 L 294 30 L 294 2 L 2 2 M 0 0 L 296 0 L 296 32 L 0 32 L 0 0 Z" stroke="none" fill="rgba(0,0,0,0.4)"/>
          </g>
        </g>
        <text id="Hint_text-4" data-name="Hint text" transform="translate(12 45)" fill="rgba(0,0,0,0.6)" font-size="14" font-family="SegoeUI, Segoe UI"><tspan x="0" y="0">25</tspan></text>
        <text id="Control_header-6" data-name="Control header" transform="translate(0 15)" font-size="14" font-family="SegoeUI, Segoe UI"><tspan x="0" y="0">Capacité (nombre de personnes)</tspan></text>
      </g>
      <g id="Basic_Input_Buttons_Hyperlinks_Accent_Button_Rest" data-name="Basic Input / Buttons &amp; Hyperlinks / Accent Button / Rest" transform="translate(33 561)">
        <path id="Button_Base" data-name="Button Base" d="M0,0H120V32H0Z" fill="rgba(85,160,236,0.84)" stroke="#707070" stroke-linejoin="round" stroke-width="1"/>
        <text id="Button_Label" data-name="Button Label" transform="translate(60 21)" fill="#fff" font-size="14" font-family="SegoeUI, Segoe UI"><tspan x="-16.522" y="0">Créer</tspan></text>
      </g>
      <g id="Basic_Input_Buttons_Hyperlinks_Accent_Button_Rest-2" data-name="Basic Input / Buttons &amp; Hyperlinks / Accent Button / Rest" transform="translate(208 561)">
        <path id="Button_Base-2" data-name="Button Base" d="M0,0H120V32H0Z" fill="rgba(235,61,85,0.89)" stroke="#707070" stroke-linejoin="round" stroke-width="1"/>
        <text id="Button_Label-2" data-name="Button Label" transform="translate(60 21)" fill="#fff" font-size="14" font-family="SegoeUI, Segoe UI"><tspan x="-20.511" y="0">Retour</tspan></text>
      </g>
    </g>
  </g>
</svg>
