<svg xmlns="http://www.w3.org/2000/svg" xmlns:xlink="http://www.w3.org/1999/xlink" width="1920" height="749" viewBox="0 0 1920 749">
  <defs>
    <clipPath id="clip-path">
      <rect width="722" height="100" fill="none"/>
    </clipPath>
    <clipPath id="clip-path-2">
      <rect width="296" height="48" fill="none"/>
    </clipPath>
    <clipPath id="clip-path-3">
      <rect width="668" height="48" fill="none"/>
    </clipPath>
    <clipPath id="clip-Media_Player">
      <rect width="1920" height="749"/>
    </clipPath>
  </defs>
  <g id="Media_Player" data-name="Media Player" clip-path="url(#clip-Media_Player)">
    <rect width="1920" height="749" fill="#fff"/>
    <g id="Media_Player-2" data-name="Media Player" transform="translate(0 327)">
      <g id="Double_Row" data-name="Double Row" transform="translate(1040 161)">
        <g id="Controls" transform="translate(0 62)">
          <g id="Media_Media_Player_Double_Row_Media_Player" data-name="Media / Media Player / Double Row / Media Player" transform="translate(1)" clip-path="url(#clip-path)">
            <g id="Double_Row-2" data-name="Double Row">
              <path id="Background" d="M0,0H722V100H0Z" fill="rgba(255,255,255,0.6)"/>
              <g id="Right_Controls" data-name="Right Controls" transform="translate(626 52)">
                <g id="_20px_48px_footprint" data-name="20px / 48px footprint" transform="translate(48)">
                  <rect id="Footprint" width="48" height="48" fill="rgba(0,0,0,0)"/>
                  <g id="_20px_20px_footprint" data-name="20px / 20px footprint" transform="translate(13 14)">
                    <rect id="Footprint-2" data-name="Footprint" width="19.997" height="20" fill="rgba(0,0,0,0)"/>
                    <text id="Icon" font-size="20" font-family="SegoeMDL2Assets, Segoe MDL2 Assets"><tspan x="0" y="20"></tspan></text>
                  </g>
                </g>
                <g id="_20px_48px_footprint-2" data-name="20px / 48px footprint">
                  <rect id="Footprint-3" data-name="Footprint" width="48" height="48" fill="rgba(0,0,0,0)"/>
                  <g id="_20px_20px_footprint-2" data-name="20px / 20px footprint" transform="translate(14 14)">
                    <rect id="Footprint-4" data-name="Footprint" width="19.997" height="20" transform="translate(1)" fill="rgba(0,0,0,0)"/>
                    <text id="Icon-2" data-name="Icon" font-size="20" font-family="SegoeMDL2Assets, Segoe MDL2 Assets"><tspan x="0" y="20"></tspan></text>
                  </g>
                </g>
                <text id="_00:00:00" data-name="00:00:00" transform="translate(84 -7)" font-size="12" font-family="SegoeUI, Segoe UI"><tspan x="-44.016" y="0">00:00:00</tspan></text>
              </g>
              <g id="Center_Controls" data-name="Center Controls" transform="translate(284 52)">
                <g id="_20px_48px_footprint-3" data-name="20px / 48px footprint" transform="translate(106.882)">
                  <rect id="Footprint-5" data-name="Footprint" width="48" height="48" fill="rgba(0,0,0,0)"/>
                  <g id="_20px_20px_footprint-3" data-name="20px / 20px footprint" transform="translate(14 14)">
                    <rect id="Footprint-6" data-name="Footprint" width="20" height="20" fill="rgba(0,0,0,0)"/>
                    <text id="Icon-3" data-name="Icon" font-size="20" font-family="SegoeMDL2Assets, Segoe MDL2 Assets"><tspan x="0" y="20"></tspan></text>
                  </g>
                </g>
                <g id="_20px_48px_footprint-4" data-name="20px / 48px footprint" transform="translate(53.5)">
                  <rect id="Footprint-7" data-name="Footprint" width="48" height="48" fill="rgba(0,0,0,0)"/>
                  <g id="_20px_20px_footprint-4" data-name="20px / 20px footprint" transform="translate(14 14)">
                    <rect id="Footprint-8" data-name="Footprint" width="20" height="20" fill="rgba(0,0,0,0)"/>
                    <text id="Icon-4" data-name="Icon" font-size="20" font-family="SegoeMDL2Assets, Segoe MDL2 Assets"><tspan x="0" y="20"></tspan></text>
                  </g>
                </g>
                <g id="_20px_48px_footprint-5" data-name="20px / 48px footprint" transform="translate(0.118)">
                  <rect id="Footprint-9" data-name="Footprint" width="48" height="48" fill="rgba(0,0,0,0)"/>
                  <g id="_20px_20px_footprint-5" data-name="20px / 20px footprint" transform="translate(14 14)">
                    <rect id="Footprint-10" data-name="Footprint" width="20" height="20" fill="rgba(0,0,0,0)"/>
                    <text id="Icon-5" data-name="Icon" font-size="20" font-family="SegoeMDL2Assets, Segoe MDL2 Assets"><tspan x="0" y="20"></tspan></text>
                  </g>
                </g>
              </g>
              <g id="Left_Controls" data-name="Left Controls" transform="translate(0 52)">
                <g id="_20px_48px_footprint-6" data-name="20px / 48px footprint" transform="translate(96)">
                  <rect id="Footprint-11" data-name="Footprint" width="48" height="48" fill="rgba(0,0,0,0)"/>
                  <g id="_20px_20px_footprint-6" data-name="20px / 20px footprint" transform="translate(14 14)">
                    <rect id="Footprint-12" data-name="Footprint" width="20" height="20" fill="rgba(0,0,0,0)"/>
                    <text id="Icon-6" data-name="Icon" font-size="20" font-family="SegoeMDL2Assets, Segoe MDL2 Assets"><tspan x="0" y="20"></tspan></text>
                  </g>
                </g>
                <g id="_20px_48px_footprint-7" data-name="20px / 48px footprint" transform="translate(48)">
                  <rect id="Footprint-13" data-name="Footprint" width="48" height="48" fill="rgba(0,0,0,0)"/>
                  <g id="_20px_20px_footprint-7" data-name="20px / 20px footprint" transform="translate(14 14)">
                    <rect id="Footprint-14" data-name="Footprint" width="20" height="20" fill="rgba(0,0,0,0)"/>
                    <text id="Icon-7" data-name="Icon" font-size="20" font-family="SegoeMDL2Assets, Segoe MDL2 Assets"><tspan x="0" y="20"></tspan></text>
                  </g>
                </g>
                <g id="_20px_48px_footprint-8" data-name="20px / 48px footprint">
                  <rect id="Footprint-15" data-name="Footprint" width="48" height="48" fill="rgba(0,0,0,0)"/>
                  <g id="_20px_20px_footprint-8" data-name="20px / 20px footprint" transform="translate(14 14)">
                    <rect id="Footprint-16" data-name="Footprint" width="20" height="20" fill="rgba(0,0,0,0)"/>
                    <text id="Icon-8" data-name="Icon" font-size="20" font-family="SegoeMDL2Assets, Segoe MDL2 Assets"><tspan x="0" y="20"></tspan></text>
                  </g>
                </g>
                <text id="_00:00:00-2" data-name="00:00:00" transform="translate(12 -7)" font-size="12" font-family="SegoeUI, Segoe UI"><tspan x="0" y="0">00:00:00</tspan></text>
              </g>
              <g id="Media_Progress" data-name="Media Progress" transform="translate(12 8)">
                <g id="Track">
                  <path id="Track-2" data-name="Track" d="M0,0H698V2H0Z" transform="translate(0 11)" fill="rgba(0,0,0,0.4)"/>
                  <path id="Progress" d="M0,0H351V4H0Z" transform="translate(0 10)" fill="#0078d7"/>
                </g>
                <path id="Position" d="M24,12A12,12,0,1,1,12,0,12,12,0,0,1,24,12Z" transform="translate(339)" fill="#fff" stroke="#0078d7" stroke-miterlimit="10" stroke-width="2"/>
              </g>
            </g>
          </g>
        </g>
        <g id="Labels" transform="translate(1)">
          <text id="Double_row-3" data-name="Double row" transform="translate(0 13.949)" fill="#00001e" font-size="12" font-family="SegoeUI-Semibold, Segoe UI" font-weight="600"><tspan x="0" y="0">DOUBLE ROW</tspan></text>
        </g>
      </g>
      <g id="Divider">
        <rect id="Background-2" data-name="Background" width="1920" height="112" fill="#8664c3"/>
        <text id="Media_Player-3" data-name="Media Player" transform="translate(80 61.582)" fill="#fff" font-size="20" font-family="SegoeUI, Segoe UI"><tspan x="0" y="0">Media Player</tspan></text>
        <rect id="Divider-2" data-name="Divider" width="1" height="310" transform="translate(960 112)" fill="rgba(0,0,0,0.1)"/>
      </g>
      <g id="Single_Row" data-name="Single Row" transform="translate(80 161)">
        <g id="Labels-2" data-name="Labels">
          <text id="Minimum_width" data-name="Minimum width" transform="translate(0 164.791)" fill="rgba(0,0,0,0.6)" font-size="10" font-family="SegoeUI, Segoe UI"><tspan x="0" y="0">MINIMUM WIDTH</tspan></text>
          <text id="Flexible_width" data-name="Flexible width" transform="translate(0 84.791)" fill="rgba(0,0,0,0.6)" font-size="10" font-family="SegoeUI, Segoe UI"><tspan x="0" y="0">FLEXIBLE WIDTH</tspan></text>
          <text id="Single_row-2" data-name="Single row" transform="translate(0 13.949)" fill="#00001e" font-size="12" font-family="SegoeUI-Semibold, Segoe UI" font-weight="600"><tspan x="0" y="0">SINGLE ROW</tspan></text>
        </g>
        <g id="Controls-2" data-name="Controls" transform="translate(120 62)">
          <g id="Media_Media_Player_Single_Row_Media_Player_-_Min_Size" data-name="Media / Media Player / Single Row / Media Player - Min Size" transform="translate(0 80)" clip-path="url(#clip-path-2)">
            <g id="Single_row_-_min_size" data-name="Single row - min size">
              <path id="Background-3" data-name="Background" d="M0,0H296V48H0Z" fill="rgba(255,255,255,0.6)"/>
              <g id="Right_controls-2" data-name="Right controls">
                <g id="_20px_48px_footprint-9" data-name="20px / 48px footprint" transform="translate(248)">
                  <rect id="Footprint-17" data-name="Footprint" width="48" height="48" fill="rgba(0,0,0,0)"/>
                  <g id="_20px_20px_footprint-9" data-name="20px / 20px footprint" transform="translate(14 14)">
                    <rect id="Footprint-18" data-name="Footprint" width="19.571" height="20" fill="rgba(0,0,0,0)"/>
                    <text id="Icon-9" data-name="Icon" font-size="20" font-family="SegoeMDL2Assets, Segoe MDL2 Assets"><tspan x="0" y="20"></tspan></text>
                  </g>
                </g>
                <g id="_20px_48px_footprint-10" data-name="20px / 48px footprint" transform="translate(200)">
                  <rect id="Footprint-19" data-name="Footprint" width="48" height="48" fill="rgba(0,0,0,0)"/>
                  <g id="_20px_20px_footprint-10" data-name="20px / 20px footprint" transform="translate(14 14)">
                    <rect id="Footprint-20" data-name="Footprint" width="20" height="20" fill="rgba(0,0,0,0)"/>
                    <text id="Icon-10" data-name="Icon" font-size="20" font-family="SegoeMDL2Assets, Segoe MDL2 Assets"><tspan x="0" y="20"></tspan></text>
                  </g>
                </g>
              </g>
              <g id="Media_Progress-2" data-name="Media Progress" transform="translate(60 12)">
                <g id="Track-3" data-name="Track">
                  <path id="Track-4" data-name="Track" d="M0,0H128V2H0Z" transform="translate(0 11)" fill="rgba(0,0,0,0.4)"/>
                  <path id="Progress-2" data-name="Progress" d="M0,0H67V4H0Z" transform="translate(0 10)" fill="#0078d7"/>
                </g>
                <path id="Position-2" data-name="Position" d="M24,12A12,12,0,1,1,12,0,12,12,0,0,1,24,12Z" transform="translate(55)" fill="#fff" stroke="#0078d7" stroke-miterlimit="10" stroke-width="2"/>
              </g>
              <g id="Left_controls-2" data-name="Left controls">
                <g id="_20px_48px_footprint-11" data-name="20px / 48px footprint">
                  <rect id="Footprint-21" data-name="Footprint" width="48" height="48" fill="rgba(0,0,0,0)"/>
                  <g id="_20px_20px_footprint-11" data-name="20px / 20px footprint" transform="translate(14 14)">
                    <rect id="Footprint-22" data-name="Footprint" width="20" height="20" fill="rgba(0,0,0,0)"/>
                    <text id="Icon-11" data-name="Icon" font-size="20" font-family="SegoeMDL2Assets, Segoe MDL2 Assets"><tspan x="0" y="20"></tspan></text>
                  </g>
                </g>
              </g>
            </g>
          </g>
          <g id="Media_Media_Player_Single_Row_Media_Player" data-name="Media / Media Player / Single Row / Media Player" clip-path="url(#clip-path-3)">
            <path id="Background-4" data-name="Background" d="M0,0H668V48H0Z" fill="rgba(255,255,255,0.6)"/>
            <g id="Right_controls-3" data-name="Right controls">
              <g id="_20px_48px_footprint-12" data-name="20px / 48px footprint" transform="translate(620)">
                <rect id="Footprint-23" data-name="Footprint" width="47" height="48" fill="rgba(0,0,0,0)"/>
                <g id="_20px_20px_footprint-12" data-name="20px / 20px footprint" transform="translate(13.694 14)">
                  <rect id="Footprint-24" data-name="Footprint" width="19.571" height="20" fill="rgba(0,0,0,0)"/>
                  <text id="Icon-12" data-name="Icon" font-size="20" font-family="SegoeMDL2Assets, Segoe MDL2 Assets"><tspan x="0" y="20"></tspan></text>
                </g>
              </g>
              <g id="_20px_48px_footprint-13" data-name="20px / 48px footprint" transform="translate(572)">
                <rect id="Footprint-25" data-name="Footprint" width="48" height="48" fill="rgba(0,0,0,0)"/>
                <g id="_20px_20px_footprint-13" data-name="20px / 20px footprint" transform="translate(13 14)">
                  <rect id="Footprint-26" data-name="Footprint" width="20" height="20" fill="rgba(0,0,0,0)"/>
                  <text id="Icon-13" data-name="Icon" font-size="20" font-family="SegoeMDL2Assets, Segoe MDL2 Assets"><tspan x="0" y="20"></tspan></text>
                </g>
              </g>
              <g id="_20px_48px_footprint-14" data-name="20px / 48px footprint" transform="translate(524)">
                <rect id="Footprint-27" data-name="Footprint" width="48" height="48" fill="rgba(0,0,0,0)"/>
                <g id="_20px_20px_footprint-14" data-name="20px / 20px footprint" transform="translate(14 14)">
                  <rect id="Footprint-28" data-name="Footprint" width="20" height="20" fill="rgba(0,0,0,0)"/>
                  <text id="Icon-14" data-name="Icon" font-size="20" font-family="SegoeMDL2Assets, Segoe MDL2 Assets"><tspan x="0" y="20"></tspan></text>
                </g>
              </g>
            </g>
            <g id="Track-5" data-name="Track" transform="translate(60 12)">
              <g id="Track-6" data-name="Track">
                <path id="Track-7" data-name="Track" d="M0,0H452V2H0Z" transform="translate(0 11)" fill="rgba(0,0,0,0.4)"/>
                <path id="Progress-3" data-name="Progress" d="M0,0H238V4H0Z" transform="translate(0 10)" fill="#0078d7"/>
              </g>
              <path id="Position-3" data-name="Position" d="M24,12A12,12,0,1,1,12,0,12,12,0,0,1,24,12Z" transform="translate(226)" fill="#fff" stroke="#0078d7" stroke-miterlimit="10" stroke-width="2"/>
            </g>
            <g id="Left_controls-3" data-name="Left controls">
              <g id="_20px_48px_footprint-15" data-name="20px / 48px footprint">
                <rect id="Footprint-29" data-name="Footprint" width="48" height="48" fill="rgba(0,0,0,0)"/>
                <g id="Icon-15" data-name="Icon" transform="translate(14 14)">
                  <rect id="Footprint-30" data-name="Footprint" width="20" height="20" fill="rgba(0,0,0,0)"/>
                  <text id="Icon-16" data-name="Icon" font-size="20" font-family="SegoeMDL2Assets, Segoe MDL2 Assets"><tspan x="0" y="20"></tspan></text>
                </g>
              </g>
            </g>
          </g>
        </g>
      </g>
      <g id="Section_Divider" data-name="Section Divider">
        <rect id="Background-5" data-name="Background" width="1920" height="112" fill="#8664c3"/>
        <text id="Media_Player-4" data-name="Media Player" transform="translate(80 61.582)" fill="#fff" font-size="20" font-family="SegoeUI, Segoe UI"><tspan x="0" y="0">Media Player</tspan></text>
        <rect id="Divider-3" data-name="Divider" width="1" height="310" transform="translate(960 112)" fill="rgba(0,0,0,0.1)"/>
      </g>
    </g>
    <g id="Page_Header" data-name="Page Header" transform="translate(80 80)">
      <g id="Link" transform="translate(0 146)">
        <text id="microsoft.com_design_fluent" data-name="microsoft.com/design/fluent" transform="translate(28 13.949)" fill="rgba(0,0,30,0.6)" font-size="12" font-family="SegoeUI, Segoe UI"><tspan x="0" y="0">microsoft.com/design/fluent</tspan></text>
        <circle id="Ellipse" cx="9.5" cy="9.5" r="9.5" transform="translate(0 2)" fill="#8664c3"/>
        <text id="Icon-17" data-name="Icon" transform="translate(4.5 15.5)" fill="#fff" font-size="9" font-family="SegoeMDL2Assets, Segoe MDL2 Assets"><tspan x="0" y="0"></tspan></text>
      </g>
      <g id="Heading">
        <text id="Description" transform="translate(593 71.898)" fill="#00001e" font-size="24" font-family="SegoeUI-Semibold, Segoe UI" font-weight="600"><tspan x="0" y="0">Media players are used to view and listen to video</tspan><tspan x="0" y="36">and audio. Media playback can be inline (embedded</tspan><tspan x="0" y="72">in a page or with a group of other controls) or in a</tspan><tspan x="0" y="108">dedicated full-screen view.</tspan></text>
        <text id="Media_Player-5" data-name="Media Player" transform="translate(0 71.689)" fill="#8664c3" font-size="34" font-family="SegoeUI-Semibold, Segoe UI" font-weight="600"><tspan x="0" y="0">Media Player</tspan></text>
        <rect id="Divider-4" data-name="Divider" width="574" height="8" fill="#8664c3"/>
      </g>
    </g>
  </g>
</svg>
